\relax 
\providecommand\hyper@newdestlabel[2]{}
\providecommand\HyperFirstAtBeginDocument{\AtBeginDocument}
\HyperFirstAtBeginDocument{\ifx\hyper@anchor\@undefined
\global\let\oldcontentsline\contentsline
\gdef\contentsline#1#2#3#4{\oldcontentsline{#1}{#2}{#3}}
\global\let\oldnewlabel\newlabel
\gdef\newlabel#1#2{\newlabelxx{#1}#2}
\gdef\newlabelxx#1#2#3#4#5#6{\oldnewlabel{#1}{{#2}{#3}}}
\AtEndDocument{\ifx\hyper@anchor\@undefined
\let\contentsline\oldcontentsline
\let\newlabel\oldnewlabel
\fi}
\fi}
\global\let\hyper@last\relax 
\gdef\HyperFirstAtBeginDocument#1{#1}
\providecommand\HyField@AuxAddToFields[1]{}
\providecommand\HyField@AuxAddToCoFields[2]{}
\citation{ATLAS dibosons}
\citation{PDG}
\citation{Electroweak symmetry breaking}
\citation{CERN and Higgs}
\citation{Electroweak symmetry breaking}
\citation{CERN and Higgs}
\citation{CERN and Higgs}
\citation{Higgs}
\citation{PDG}
\citation{Dark matter}
\citation{GUT}
\citation{ATLAS dibosons}
\citation{ATLAS dibosons}
\citation{ATLAS dibosons hadronic}
\citation{CMS dibosons}
\citation{ATLAS dibosons}
\@writefile{toc}{\contentsline {chapter}{\numberline {1}Introduction}{2}{chapter.1}\protected@file@percent }
\@writefile{lof}{\addvspace {10\p@ }}
\@writefile{lot}{\addvspace {10\p@ }}
\citation{ATLAS dibosons}
\citation{HVT}
\citation{SSM}
\citation{Radion}
\citation{Graviton}
\citation{ATLAS dibosons}
\citation{ATLAS dibosons}
\citation{PDG}
\citation{PDG}
\citation{ATLAS dibosons}
\@writefile{toc}{\contentsline {chapter}{\numberline {2}Background}{3}{chapter.2}\protected@file@percent }
\@writefile{lof}{\addvspace {10\p@ }}
\@writefile{lot}{\addvspace {10\p@ }}
\@writefile{toc}{\contentsline {section}{\numberline {2.1}Types of Heavy Resonance}{3}{section.2.1}\protected@file@percent }
\newlabel{sec:types of heavy resonance}{{2.1}{3}{Types of Heavy Resonance}{section.2.1}{}}
\providecommand*\caption@xref[2]{\@setref\relax\@undefined{#1}}
\newlabel{fig:feynman diagram g-g}{{2.1a}{3}{gluon-gluon fusion\relax }{figure.caption.3}{}}
\newlabel{sub@fig:feynman diagram g-g}{{a}{3}{gluon-gluon fusion\relax }{figure.caption.3}{}}
\newlabel{fig:feynman diagram d-y}{{2.1b}{3}{Drell-Yan\relax }{figure.caption.3}{}}
\newlabel{sub@fig:feynman diagram d-y}{{b}{3}{Drell-Yan\relax }{figure.caption.3}{}}
\newlabel{fig:feynman diagram v-b}{{2.1c}{3}{vector-boson fusion\relax }{figure.caption.3}{}}
\newlabel{sub@fig:feynman diagram v-b}{{c}{3}{vector-boson fusion\relax }{figure.caption.3}{}}
\@writefile{lof}{\contentsline {figure}{\numberline {2.1}{\ignorespaces Feynman diagrams showing different theorised production mechanisms of heavy resonances $X$, and their decays into a pair of bosons $VV$. The hashed circles represent direct or effective couplings. Fig. originally from \cite  {ATLAS dibosons}.\relax }}{3}{figure.caption.3}\protected@file@percent }
\newlabel{fig:feynman diagrams}{{2.1}{3}{Feynman diagrams showing different theorised production mechanisms of heavy resonances $X$, and their decays into a pair of bosons $VV$. The hashed circles represent direct or effective couplings. Fig. originally from \cite {ATLAS dibosons}.\relax }{figure.caption.3}{}}
\@writefile{toc}{\contentsline {section}{\numberline {2.2}Decay Channels}{3}{section.2.2}\protected@file@percent }
\citation{ATLAS layers}
\citation{ATLAS layers}
\citation{PP Dectector Lecture}
\@writefile{lot}{\contentsline {table}{\numberline {2.1}{\ignorespaces Main decay modes of the $W^\pm $ and $Z^0$ bosons with branching fractions \cite  {PDG}.\relax }}{4}{table.2.1}\protected@file@percent }
\newlabel{table:w/z decay products}{{2.1}{4}{Main decay modes of the $W^\pm $ and $Z^0$ bosons with branching fractions \cite {PDG}.\relax }{table.2.1}{}}
\@writefile{toc}{\contentsline {section}{\numberline {2.3}ATLAS Detector}{4}{section.2.3}\protected@file@percent }
\newlabel{sec:atlas detector}{{2.3}{4}{ATLAS Detector}{section.2.3}{}}
\citation{anti-kt}
\citation{PP Dectector Lecture}
\citation{ATLAS detection}
\@writefile{lof}{\contentsline {figure}{\numberline {2.2}{\ignorespaces Diagram showing the different layers of the ATLAS detector \cite  {ATLAS layers}.\relax }}{5}{figure.caption.4}\protected@file@percent }
\newlabel{fig:atlas layers}{{2.2}{5}{Diagram showing the different layers of the ATLAS detector \cite {ATLAS layers}.\relax }{figure.caption.4}{}}
\@writefile{lof}{\contentsline {figure}{\numberline {2.3}{\ignorespaces Feynman diagram showing Drell-Yan production of a $Z'$ and its decay into a pair of $W$ boson which then decay semi-leptonically.\relax }}{5}{figure.caption.5}\protected@file@percent }
\newlabel{fig:zprime feynman with products}{{2.3}{5}{Feynman diagram showing Drell-Yan production of a $Z'$ and its decay into a pair of $W$ boson which then decay semi-leptonically.\relax }{figure.caption.5}{}}
\citation{Pythia Guide}
\citation{Pythia Physics}
\citation{Delphes}
\citation{Delphes Workbook}
\citation{ATLAS dibosons}
\citation{ATLAS dibosons hadronic}
\citation{ATLAS dibosons}
\@writefile{toc}{\contentsline {chapter}{\numberline {3}Simulation}{7}{chapter.3}\protected@file@percent }
\@writefile{lof}{\addvspace {10\p@ }}
\@writefile{lot}{\addvspace {10\p@ }}
\@writefile{toc}{\contentsline {section}{\numberline {3.1}Signal}{7}{section.3.1}\protected@file@percent }
\newlabel{sec:simulation:signal}{{3.1}{7}{Signal}{section.3.1}{}}
\newlabel{eqn:weighted counting error}{{3.1}{7}{Signal}{equation.3.1.1}{}}
\@writefile{lof}{\contentsline {figure}{\numberline {3.1}{\ignorespaces $Z'$ production cross-section as a function of its mass as calculated by \textit  {Pythia}.\relax }}{8}{figure.caption.6}\protected@file@percent }
\newlabel{fig:zmass vs cs}{{3.1}{8}{$Z'$ production cross-section as a function of its mass as calculated by \textit {Pythia}.\relax }{figure.caption.6}{}}
\@writefile{toc}{\contentsline {section}{\numberline {3.2}Background}{8}{section.3.2}\protected@file@percent }
\newlabel{sec:simluation:background}{{3.2}{8}{Background}{section.3.2}{}}
\@writefile{lot}{\contentsline {table}{\numberline {3.1}{\ignorespaces Cross sections and weights of Z’ production and relevant background processes.\relax }}{8}{table.3.1}\protected@file@percent }
\newlabel{table:cross-sections}{{3.1}{8}{Cross sections and weights of Z’ production and relevant background processes.\relax }{table.3.1}{}}
\newlabel{fig:feynman diagram v+jet}{{3.2a}{9}{V+jet\relax }{figure.caption.7}{}}
\newlabel{sub@fig:feynman diagram v+jet}{{a}{9}{V+jet\relax }{figure.caption.7}{}}
\newlabel{fig:feynman diagram diboson}{{3.2b}{9}{SM Diboson\relax }{figure.caption.7}{}}
\newlabel{sub@fig:feynman diagram diboson}{{b}{9}{SM Diboson\relax }{figure.caption.7}{}}
\newlabel{fig:feynman diagram ttbar}{{3.2c}{9}{$t\bar {t}$\relax }{figure.caption.7}{}}
\newlabel{sub@fig:feynman diagram ttbar}{{c}{9}{$t\bar {t}$\relax }{figure.caption.7}{}}
\newlabel{fig:feynman diagram single top}{{3.2d}{9}{Single top\relax }{figure.caption.7}{}}
\newlabel{sub@fig:feynman diagram single top}{{d}{9}{Single top\relax }{figure.caption.7}{}}
\@writefile{lof}{\contentsline {figure}{\numberline {3.2}{\ignorespaces Feynman diagrams for the production of the dominant background processes for semi-leptonic $Z'$ decay.\relax }}{9}{figure.caption.7}\protected@file@percent }
\newlabel{fig:feynman diagrams background}{{3.2}{9}{Feynman diagrams for the production of the dominant background processes for semi-leptonic $Z'$ decay.\relax }{figure.caption.7}{}}
\newlabel{fig:V+jet mhatmin 0}{{3.3a}{9}{$\hat {m}_{min} = 0$ GeV\relax }{figure.caption.8}{}}
\newlabel{sub@fig:V+jet mhatmin 0}{{a}{9}{$\hat {m}_{min} = 0$ GeV\relax }{figure.caption.8}{}}
\newlabel{fig:V+jet mhatmin 500}{{3.3b}{9}{$\hat {m}_{min} = 500$ GeV\relax }{figure.caption.8}{}}
\newlabel{sub@fig:V+jet mhatmin 500}{{b}{9}{$\hat {m}_{min} = 500$ GeV\relax }{figure.caption.8}{}}
\@writefile{lof}{\contentsline {figure}{\numberline {3.3}{\ignorespaces Comparison of the invariant mass of each reconstructed candidate in $10^5$ simulated $V+$jet background events (a) with and (b) without phase space cuts applied.\relax }}{9}{figure.caption.8}\protected@file@percent }
\newlabel{fig:V+jet mhatmin}{{3.3}{9}{Comparison of the invariant mass of each reconstructed candidate in $10^5$ simulated $V+$jet background events (a) with and (b) without phase space cuts applied.\relax }{figure.caption.8}{}}
\newlabel{fig:phase space cut optimisation ttbar lower}{{3.4a}{10}{Lower cuts\relax }{figure.caption.9}{}}
\newlabel{sub@fig:phase space cut optimisation ttbar lower}{{a}{10}{Lower cuts\relax }{figure.caption.9}{}}
\newlabel{fig:phase space cut optimisation ttbar higher}{{3.4b}{10}{Higher cuts\relax }{figure.caption.9}{}}
\newlabel{sub@fig:phase space cut optimisation ttbar higher}{{b}{10}{Higher cuts\relax }{figure.caption.9}{}}
\@writefile{lof}{\contentsline {figure}{\numberline {3.4}{\ignorespaces Comparison of reconstructed $t\bar  {t}$ events at truth and reconstructed levels, with different (a) lower and (b) higher phase space cuts applied.\relax }}{10}{figure.caption.9}\protected@file@percent }
\newlabel{fig:phase space cut optimisation ttbar}{{3.4}{10}{Comparison of reconstructed $t\bar {t}$ events at truth and reconstructed levels, with different (a) lower and (b) higher phase space cuts applied.\relax }{figure.caption.9}{}}
\@writefile{lof}{\contentsline {figure}{\numberline {3.5}{\ignorespaces Comparison of reconstructed $t\bar  {t}$ events at reconstructed level, with different $\hat  {m}_{min}$ phase space cuts applied.\relax }}{11}{figure.caption.10}\protected@file@percent }
\newlabel{fig:ttbar higher z mass}{{3.5}{11}{Comparison of reconstructed $t\bar {t}$ events at reconstructed level, with different $\hat {m}_{min}$ phase space cuts applied.\relax }{figure.caption.10}{}}
\citation{ATLAS dibosons}
\citation{CRs}
\citation{ATLAS dibosons}
\citation{CRs 2}
\@writefile{toc}{\contentsline {subsection}{\numberline {3.2.1}Control Regions}{12}{subsection.3.2.1}\protected@file@percent }
\newlabel{subsec:control regions}{{3.2.1}{12}{Control Regions}{subsection.3.2.1}{}}
\citation{Delta R formula}
\@writefile{toc}{\contentsline {chapter}{\numberline {4}Reconstruction}{13}{chapter.4}\protected@file@percent }
\@writefile{lof}{\addvspace {10\p@ }}
\@writefile{lot}{\addvspace {10\p@ }}
\@writefile{toc}{\contentsline {section}{\numberline {4.1}Efficiency}{13}{section.4.1}\protected@file@percent }
\newlabel{eqn:delta R}{{4.1}{13}{Efficiency}{equation.4.1.1}{}}
\newlabel{fig:jet delta R}{{4.1a}{13}{\relax }{figure.caption.11}{}}
\newlabel{sub@fig:jet delta R}{{a}{13}{\relax }{figure.caption.11}{}}
\newlabel{fig:jet sigma pT}{{4.1b}{13}{\relax }{figure.caption.11}{}}
\newlabel{sub@fig:jet sigma pT}{{b}{13}{\relax }{figure.caption.11}{}}
\@writefile{lof}{\contentsline {figure}{\numberline {4.1}{\ignorespaces (a) $\Delta R$ and (b) $\sigma _{p_T}$ between well-matched truth and reconstructed jets.\relax }}{13}{figure.caption.11}\protected@file@percent }
\newlabel{fig:jet comparison parameters}{{4.1}{13}{(a) $\Delta R$ and (b) $\sigma _{p_T}$ between well-matched truth and reconstructed jets.\relax }{figure.caption.11}{}}
\newlabel{eqn:sigma pT}{{4.2}{13}{Efficiency}{equation.4.1.2}{}}
\newlabel{fig:genjet recon quality}{{4.2a}{14}{Jets\relax }{figure.caption.12}{}}
\newlabel{sub@fig:genjet recon quality}{{a}{14}{Jets\relax }{figure.caption.12}{}}
\newlabel{fig:electron recon quality}{{4.2b}{14}{Electrons\relax }{figure.caption.12}{}}
\newlabel{sub@fig:electron recon quality}{{b}{14}{Electrons\relax }{figure.caption.12}{}}
\newlabel{fig:muon recon quality}{{4.2c}{14}{Muons\relax }{figure.caption.12}{}}
\newlabel{sub@fig:muon recon quality}{{c}{14}{Muons\relax }{figure.caption.12}{}}
\@writefile{lof}{\contentsline {figure}{\numberline {4.2}{\ignorespaces Efficiency of (a) jet, (b) electron and (c) muon reconstruction in the \textit  {Delphes} signal simulation.\relax }}{14}{figure.caption.12}\protected@file@percent }
\newlabel{fig:recon quality}{{4.2}{14}{Efficiency of (a) jet, (b) electron and (c) muon reconstruction in the \textit {Delphes} signal simulation.\relax }{figure.caption.12}{}}
\@writefile{lot}{\contentsline {table}{\numberline {4.1}{\ignorespaces Reconstruction efficiency of different particle types.\relax }}{14}{table.4.1}\protected@file@percent }
\newlabel{table:recon efficiency}{{4.1}{14}{Reconstruction efficiency of different particle types.\relax }{table.4.1}{}}
\@writefile{lof}{\contentsline {figure}{\numberline {4.3}{\ignorespaces Mother particles of truth leptons in \textit  {Pythia} signal simulation.\relax }}{15}{figure.caption.13}\protected@file@percent }
\newlabel{fig:lepton sources truth}{{4.3}{15}{Mother particles of truth leptons in \textit {Pythia} signal simulation.\relax }{figure.caption.13}{}}
\citation{PDG}
\newlabel{fig:lepton sources truth pT from W}{{4.4a}{16}{Truth - from $W$\relax }{figure.caption.14}{}}
\newlabel{sub@fig:lepton sources truth pT from W}{{a}{16}{Truth - from $W$\relax }{figure.caption.14}{}}
\newlabel{fig:lepton sources truth pT not from W}{{4.4b}{16}{Truth - not from $W$\relax }{figure.caption.14}{}}
\newlabel{sub@fig:lepton sources truth pT not from W}{{b}{16}{Truth - not from $W$\relax }{figure.caption.14}{}}
\newlabel{fig:lepton sources recon pT from W}{{4.4c}{16}{Reconstructed - from $W$\relax }{figure.caption.14}{}}
\newlabel{sub@fig:lepton sources recon pT from W}{{c}{16}{Reconstructed - from $W$\relax }{figure.caption.14}{}}
\newlabel{fig:lepton sources recon pT not from W}{{4.4d}{16}{Reconstructed - not from $W$\relax }{figure.caption.14}{}}
\newlabel{sub@fig:lepton sources recon pT not from W}{{d}{16}{Reconstructed - not from $W$\relax }{figure.caption.14}{}}
\@writefile{lof}{\contentsline {figure}{\numberline {4.4}{\ignorespaces Comparison of the $p_T$ of leptons which do (left) and don't (right) originate from $W$ decays, at truth (top) and reconstructed (bottom) levels.\relax }}{16}{figure.caption.14}\protected@file@percent }
\newlabel{fig:lepton sources pT}{{4.4}{16}{Comparison of the $p_T$ of leptons which do (left) and don't (right) originate from $W$ decays, at truth (top) and reconstructed (bottom) levels.\relax }{figure.caption.14}{}}
\@writefile{toc}{\contentsline {section}{\numberline {4.2}Neutrino $\eta $ Calculation}{16}{section.4.2}\protected@file@percent }
\newlabel{sec:neutrino eta}{{4.2}{16}{Neutrino $\eta $ Calculation}{section.4.2}{}}
\@writefile{lot}{\contentsline {table}{\numberline {4.2}{\ignorespaces Reconstruction efficiency of signal and background leptons in \textit  {Delphes} signal simulation.\relax }}{17}{table.4.2}\protected@file@percent }
\newlabel{table:lepton recon efficiency}{{4.2}{17}{Reconstruction efficiency of signal and background leptons in \textit {Delphes} signal simulation.\relax }{table.4.2}{}}
\newlabel{fig:met delta eta recon}{{4.5a}{17}{Reconstructed $\eta ^\nu $\relax }{figure.caption.15}{}}
\newlabel{sub@fig:met delta eta recon}{{a}{17}{Reconstructed $\eta ^\nu $\relax }{figure.caption.15}{}}
\newlabel{fig:met delta eta calc}{{4.5b}{17}{Calculated $\eta ^\nu $\relax }{figure.caption.15}{}}
\newlabel{sub@fig:met delta eta calc}{{b}{17}{Calculated $\eta ^\nu $\relax }{figure.caption.15}{}}
\@writefile{lof}{\contentsline {figure}{\numberline {4.5}{\ignorespaces $\Delta \eta $ between truth and (a) reconstructed; (b) calculated neutrino $\eta ^\nu $ as a function of $E_T^{\textrm  {Missing}}$.\relax }}{17}{figure.caption.15}\protected@file@percent }
\newlabel{fig:met delta eta}{{4.5}{17}{$\Delta \eta $ between truth and (a) reconstructed; (b) calculated neutrino $\eta ^\nu $ as a function of $E_T^{\textrm {Missing}}$.\relax }{figure.caption.15}{}}
\@writefile{lof}{\contentsline {figure}{\numberline {4.6}{\ignorespaces $\Delta M_{W_l}$ between truth and reconstructed $W$ mass as a function of neutrino $\eta ^\nu $.\relax }}{18}{figure.caption.16}\protected@file@percent }
\newlabel{fig:eta calc graph}{{4.6}{18}{$\Delta M_{W_l}$ between truth and reconstructed $W$ mass as a function of neutrino $\eta ^\nu $.\relax }{figure.caption.16}{}}
\@writefile{lof}{\contentsline {figure}{\numberline {4.7}{\ignorespaces $\Delta M_{Z'}$ between truth and reconstructed $Z'$ as a function of minimum $\Delta M_{W_l}$ between truth and reconstructed leptonic $W_l$.\relax }}{18}{figure.caption.17}\protected@file@percent }
\newlabel{fig:met delta M vs ZprimeMass}{{4.7}{18}{$\Delta M_{Z'}$ between truth and reconstructed $Z'$ as a function of minimum $\Delta M_{W_l}$ between truth and reconstructed leptonic $W_l$.\relax }{figure.caption.17}{}}
\citation{Wong}
\citation{Wong}
\@writefile{toc}{\contentsline {section}{\numberline {4.3}Reconstructing the $Z'$}{19}{section.4.3}\protected@file@percent }
\newlabel{eqn:px}{{4.7}{19}{Reconstructing the $Z'$}{equation.4.3.7}{}}
\newlabel{eqn:py}{{4.8}{19}{Reconstructing the $Z'$}{equation.4.3.8}{}}
\newlabel{eqn:pz}{{4.9}{19}{Reconstructing the $Z'$}{equation.4.3.9}{}}
\newlabel{eqn:p}{{4.10}{19}{Reconstructing the $Z'$}{equation.4.3.10}{}}
\newlabel{eqn:p components}{{4.11}{19}{Reconstructing the $Z'$}{equation.4.3.11}{}}
\newlabel{eqn:mass}{{4.12}{19}{Reconstructing the $Z'$}{equation.4.3.12}{}}
\citation{PDG}
\@writefile{toc}{\contentsline {chapter}{\numberline {5}Event Selection}{20}{chapter.5}\protected@file@percent }
\@writefile{lof}{\addvspace {10\p@ }}
\@writefile{lot}{\addvspace {10\p@ }}
\@writefile{toc}{\contentsline {section}{\numberline {5.1}Signal}{20}{section.5.1}\protected@file@percent }
\newlabel{sec:event selection:signal}{{5.1}{20}{Signal}{section.5.1}{}}
\@writefile{toc}{\contentsline {subsection}{\numberline {5.1.1}Jet Pair Mass}{20}{subsection.5.1.1}\protected@file@percent }
\newlabel{fig:jet pair mass all}{{5.1a}{20}{\relax }{figure.caption.18}{}}
\newlabel{sub@fig:jet pair mass all}{{a}{20}{\relax }{figure.caption.18}{}}
\newlabel{fig:jet pair mass from W}{{5.1b}{20}{\relax }{figure.caption.18}{}}
\newlabel{sub@fig:jet pair mass from W}{{b}{20}{\relax }{figure.caption.18}{}}
\@writefile{lof}{\contentsline {figure}{\numberline {5.1}{\ignorespaces Invariant mass $m_{jj}$ of leading (highest $p_T$) jet pair (a) in each event; (b) where both jets originate from the same $W$ boson.\relax }}{20}{figure.caption.18}\protected@file@percent }
\newlabel{fig:jet pair mass}{{5.1}{20}{Invariant mass $m_{jj}$ of leading (highest $p_T$) jet pair (a) in each event; (b) where both jets originate from the same $W$ boson.\relax }{figure.caption.18}{}}
\@writefile{toc}{\contentsline {subsection}{\numberline {5.1.2}Reconstruction Accuracy}{20}{subsection.5.1.2}\protected@file@percent }
\newlabel{fig:jet delta pT}{{5.2a}{21}{$\Delta p_T$\relax }{figure.caption.19}{}}
\newlabel{sub@fig:jet delta pT}{{a}{21}{$\Delta p_T$\relax }{figure.caption.19}{}}
\newlabel{fig:jet delta phi}{{5.2b}{21}{$\Delta \phi $\relax }{figure.caption.19}{}}
\newlabel{sub@fig:jet delta phi}{{b}{21}{$\Delta \phi $\relax }{figure.caption.19}{}}
\newlabel{fig:jet delta eta}{{5.2c}{21}{$\Delta \eta $\relax }{figure.caption.19}{}}
\newlabel{sub@fig:jet delta eta}{{c}{21}{$\Delta \eta $\relax }{figure.caption.19}{}}
\@writefile{lof}{\contentsline {figure}{\numberline {5.2}{\ignorespaces (a) $\Delta p_T$, (b) $\Delta \phi $ and (c) $\Delta \eta $ between truth and reconstructed jets as a function of jet $p_T$.\relax }}{21}{figure.caption.19}\protected@file@percent }
\newlabel{fig:jet recon accuracy}{{5.2}{21}{(a) $\Delta p_T$, (b) $\Delta \phi $ and (c) $\Delta \eta $ between truth and reconstructed jets as a function of jet $p_T$.\relax }{figure.caption.19}{}}
\newlabel{fig:lepton delta pT}{{5.3a}{21}{$\Delta p_T$\relax }{figure.caption.20}{}}
\newlabel{sub@fig:lepton delta pT}{{a}{21}{$\Delta p_T$\relax }{figure.caption.20}{}}
\newlabel{fig:lepton delta phi}{{5.3b}{21}{$\Delta \phi $\relax }{figure.caption.20}{}}
\newlabel{sub@fig:lepton delta phi}{{b}{21}{$\Delta \phi $\relax }{figure.caption.20}{}}
\newlabel{fig:lepton delta eta}{{5.3c}{21}{$\Delta \eta $\relax }{figure.caption.20}{}}
\newlabel{sub@fig:lepton delta eta}{{c}{21}{$\Delta \eta $\relax }{figure.caption.20}{}}
\@writefile{lof}{\contentsline {figure}{\numberline {5.3}{\ignorespaces (a) $\Delta p_T$, (b) $\Delta \phi $ and (c) $\Delta \eta $ between truth and reconstructed leptons as a function of lepton $p_T$.\relax }}{21}{figure.caption.20}\protected@file@percent }
\newlabel{fig:lepton recon accuracy}{{5.3}{21}{(a) $\Delta p_T$, (b) $\Delta \phi $ and (c) $\Delta \eta $ between truth and reconstructed leptons as a function of lepton $p_T$.\relax }{figure.caption.20}{}}
\newlabel{fig:met delta pT}{{5.4a}{22}{$\Delta p_T$\relax }{figure.caption.21}{}}
\newlabel{sub@fig:met delta pT}{{a}{22}{$\Delta p_T$\relax }{figure.caption.21}{}}
\newlabel{fig:met delta phi}{{5.4b}{22}{$\Delta \phi $\relax }{figure.caption.21}{}}
\newlabel{sub@fig:met delta phi}{{b}{22}{$\Delta \phi $\relax }{figure.caption.21}{}}
\newlabel{fig:met delta eta 2}{{5.4c}{22}{$\Delta \eta $\relax }{figure.caption.21}{}}
\newlabel{sub@fig:met delta eta 2}{{c}{22}{$\Delta \eta $\relax }{figure.caption.21}{}}
\@writefile{lof}{\contentsline {figure}{\numberline {5.4}{\ignorespaces (a) $\Delta p_T$, (b) $\Delta \phi $ and (c) $\Delta \eta $ between truth and reconstructed neutrino as a function of $E_T^{\textrm  {Missing}}$.\relax }}{22}{figure.caption.21}\protected@file@percent }
\newlabel{fig:met recon accuracy}{{5.4}{22}{(a) $\Delta p_T$, (b) $\Delta \phi $ and (c) $\Delta \eta $ between truth and reconstructed neutrino as a function of $E_T^{\textrm {Missing}}$.\relax }{figure.caption.21}{}}
\@writefile{toc}{\contentsline {section}{\numberline {5.2}Background}{22}{section.5.2}\protected@file@percent }
\newlabel{sec:event selection:background}{{5.2}{22}{Background}{section.5.2}{}}
\@writefile{toc}{\contentsline {subsection}{\numberline {5.2.1}Optimising Significance}{22}{subsection.5.2.1}\protected@file@percent }
\newlabel{subsec:optimising significance}{{5.2.1}{22}{Optimising Significance}{subsection.5.2.1}{}}
\newlabel{eqn:significance}{{5.1}{22}{Optimising Significance}{equation.5.2.1}{}}
\citation{PDG}
\citation{ATLAS dibosons}
\newlabel{fig:zprime precuts}{{5.5a}{23}{Signal\relax }{figure.caption.22}{}}
\newlabel{sub@fig:zprime precuts}{{a}{23}{Signal\relax }{figure.caption.22}{}}
\newlabel{fig:background precuts}{{5.5b}{23}{Background\relax }{figure.caption.22}{}}
\newlabel{sub@fig:background precuts}{{b}{23}{Background\relax }{figure.caption.22}{}}
\@writefile{lof}{\contentsline {figure}{\numberline {5.5}{\ignorespaces Reconstructed (a) $Z'$ signal and (b) background events for $m_{Z'} = 1$ TeV before background removal.\relax }}{23}{figure.caption.22}\protected@file@percent }
\newlabel{fig:signal/background precuts}{{5.5}{23}{Reconstructed (a) $Z'$ signal and (b) background events for $m_{Z'} = 1$ TeV before background removal.\relax }{figure.caption.22}{}}
\newlabel{fig:btagger signal}{{5.6a}{23}{$Z'$ Signal\relax }{figure.caption.23}{}}
\newlabel{sub@fig:btagger signal}{{a}{23}{$Z'$ Signal\relax }{figure.caption.23}{}}
\newlabel{fig:btagger background}{{5.6b}{23}{Background\relax }{figure.caption.23}{}}
\newlabel{sub@fig:btagger background}{{b}{23}{Background\relax }{figure.caption.23}{}}
\@writefile{lof}{\contentsline {figure}{\numberline {5.6}{\ignorespaces Results of $b$-tagging of jets in the each semi-leptonic (a) signal and (b) background event.\relax }}{23}{figure.caption.23}\protected@file@percent }
\newlabel{fig:btagger}{{5.6}{23}{Results of $b$-tagging of jets in the each semi-leptonic (a) signal and (b) background event.\relax }{figure.caption.23}{}}
\newlabel{fig:jet num signal}{{5.7a}{24}{Signal\relax }{figure.caption.24}{}}
\newlabel{sub@fig:jet num signal}{{a}{24}{Signal\relax }{figure.caption.24}{}}
\newlabel{fig:jet num background}{{5.7b}{24}{Background\relax }{figure.caption.24}{}}
\newlabel{sub@fig:jet num background}{{b}{24}{Background\relax }{figure.caption.24}{}}
\@writefile{lof}{\contentsline {figure}{\numberline {5.7}{\ignorespaces Number of jets in each semi-leptonic (a) signal and (b) background event.\relax }}{24}{figure.caption.24}\protected@file@percent }
\newlabel{fig:jet num}{{5.7}{24}{Number of jets in each semi-leptonic (a) signal and (b) background event.\relax }{figure.caption.24}{}}
\newlabel{fig:jet pair mass signal}{{5.8a}{24}{Signal\relax }{figure.caption.25}{}}
\newlabel{sub@fig:jet pair mass signal}{{a}{24}{Signal\relax }{figure.caption.25}{}}
\newlabel{fig:jet pair mass background}{{5.8b}{24}{Background\relax }{figure.caption.25}{}}
\newlabel{sub@fig:jet pair mass background}{{b}{24}{Background\relax }{figure.caption.25}{}}
\@writefile{lof}{\contentsline {figure}{\numberline {5.8}{\ignorespaces Invariant mass $m_{jj}$ of leading jet pair in each semi-leptonic (a) signal and (b) background event.\relax }}{24}{figure.caption.25}\protected@file@percent }
\newlabel{fig:jet pair mass signal/background}{{5.8}{24}{Invariant mass $m_{jj}$ of leading jet pair in each semi-leptonic (a) signal and (b) background event.\relax }{figure.caption.25}{}}
\newlabel{fig:lepton pT signal}{{5.9a}{24}{Signal\relax }{figure.caption.26}{}}
\newlabel{sub@fig:lepton pT signal}{{a}{24}{Signal\relax }{figure.caption.26}{}}
\newlabel{fig:lepton pT background}{{5.9b}{24}{Background\relax }{figure.caption.26}{}}
\newlabel{sub@fig:lepton pT background}{{b}{24}{Background\relax }{figure.caption.26}{}}
\@writefile{lof}{\contentsline {figure}{\numberline {5.9}{\ignorespaces Leading lepton $p_T$ in each semi-leptonic (a) signal and (b) background event.\relax }}{24}{figure.caption.26}\protected@file@percent }
\newlabel{fig:lepton pT}{{5.9}{24}{Leading lepton $p_T$ in each semi-leptonic (a) signal and (b) background event.\relax }{figure.caption.26}{}}
\newlabel{fig:W pT hadronic signal}{{5.10a}{25}{Signal\relax }{figure.caption.27}{}}
\newlabel{sub@fig:W pT hadronic signal}{{a}{25}{Signal\relax }{figure.caption.27}{}}
\newlabel{fig:W pT hadronic background}{{5.10b}{25}{Background\relax }{figure.caption.27}{}}
\newlabel{sub@fig:W pT hadronic background}{{b}{25}{Background\relax }{figure.caption.27}{}}
\@writefile{lof}{\contentsline {figure}{\numberline {5.10}{\ignorespaces $p_T^{W_h}$ in each semi-leptonic (a) signal and (b) background event.\relax }}{25}{figure.caption.27}\protected@file@percent }
\newlabel{fig:W pT hadronic}{{5.10}{25}{$p_T^{W_h}$ in each semi-leptonic (a) signal and (b) background event.\relax }{figure.caption.27}{}}
\newlabel{fig:W pT leptonic signal}{{5.11a}{25}{Signal\relax }{figure.caption.28}{}}
\newlabel{sub@fig:W pT leptonic signal}{{a}{25}{Signal\relax }{figure.caption.28}{}}
\newlabel{fig:W pT leptonic background}{{5.11b}{25}{Background\relax }{figure.caption.28}{}}
\newlabel{sub@fig:W pT leptonic background}{{b}{25}{Background\relax }{figure.caption.28}{}}
\@writefile{lof}{\contentsline {figure}{\numberline {5.11}{\ignorespaces $p_T^{W_l}$ in each semi-leptonic (a) signal and (b) background event.\relax }}{25}{figure.caption.28}\protected@file@percent }
\newlabel{fig:W pT leptonic}{{5.11}{25}{$p_T^{W_l}$ in each semi-leptonic (a) signal and (b) background event.\relax }{figure.caption.28}{}}
\@writefile{toc}{\contentsline {subsection}{\numberline {5.2.2}Cut Flow}{25}{subsection.5.2.2}\protected@file@percent }
\newlabel{subsec:cut flow}{{5.2.2}{25}{Cut Flow}{subsection.5.2.2}{}}
\newlabel{fig:R function signal}{{5.12a}{26}{Signal\relax }{figure.caption.29}{}}
\newlabel{sub@fig:R function signal}{{a}{26}{Signal\relax }{figure.caption.29}{}}
\newlabel{fig:R function background}{{5.12b}{26}{Background\relax }{figure.caption.29}{}}
\newlabel{sub@fig:R function background}{{b}{26}{Background\relax }{figure.caption.29}{}}
\@writefile{lof}{\contentsline {figure}{\numberline {5.12}{\ignorespaces $\mathcal  {R}_{p_T/m}$ in each semi-leptonic (a) signal and (b) background event.\relax }}{26}{figure.caption.29}\protected@file@percent }
\newlabel{fig:R function}{{5.12}{26}{$\mathcal {R}_{p_T/m}$ in each semi-leptonic (a) signal and (b) background event.\relax }{figure.caption.29}{}}
\@writefile{lot}{\contentsline {table}{\numberline {5.1}{\ignorespaces Efficiency of signal and background reconstruction in mass window of optimised size, with respect to the previous cut level, for $m_{Z'} = 1$, $1.2$ and $1.4$ TeV. Dashes represent the point at which significance cannot be optimised further.\relax }}{26}{table.5.1}\protected@file@percent }
\newlabel{table:cut flow efficiency}{{5.1}{26}{Efficiency of signal and background reconstruction in mass window of optimised size, with respect to the previous cut level, for $m_{Z'} = 1$, $1.2$ and $1.4$ TeV. Dashes represent the point at which significance cannot be optimised further.\relax }{table.5.1}{}}
\newlabel{fig:hadronic W pT n-1 signal}{{5.13a}{27}{Signal\relax }{figure.caption.30}{}}
\newlabel{sub@fig:hadronic W pT n-1 signal}{{a}{27}{Signal\relax }{figure.caption.30}{}}
\newlabel{fig:hadronic W pT n-1 background}{{5.13b}{27}{Background\relax }{figure.caption.30}{}}
\newlabel{sub@fig:hadronic W pT n-1 background}{{b}{27}{Background\relax }{figure.caption.30}{}}
\@writefile{lof}{\contentsline {figure}{\numberline {5.13}{\ignorespaces $n-1$ plot for $p_T^{W_h}$.\relax }}{27}{figure.caption.30}\protected@file@percent }
\newlabel{fig:hadronic W pT n-1}{{5.13}{27}{$n-1$ plot for $p_T^{W_h}$.\relax }{figure.caption.30}{}}
\newlabel{fig:jet pair mass n-1 signal}{{5.14a}{27}{Signal\relax }{figure.caption.31}{}}
\newlabel{sub@fig:jet pair mass n-1 signal}{{a}{27}{Signal\relax }{figure.caption.31}{}}
\newlabel{fig:jet pair mass n-1 background}{{5.14b}{27}{Background\relax }{figure.caption.31}{}}
\newlabel{sub@fig:jet pair mass n-1 background}{{b}{27}{Background\relax }{figure.caption.31}{}}
\@writefile{lof}{\contentsline {figure}{\numberline {5.14}{\ignorespaces $n-1$ plot for $m_{jj}$.\relax }}{27}{figure.caption.31}\protected@file@percent }
\newlabel{fig:jet pair mass n-1}{{5.14}{27}{$n-1$ plot for $m_{jj}$.\relax }{figure.caption.31}{}}
\newlabel{fig:jet num n-1 signal}{{5.15a}{27}{Signal\relax }{figure.caption.32}{}}
\newlabel{sub@fig:jet num n-1 signal}{{a}{27}{Signal\relax }{figure.caption.32}{}}
\newlabel{fig:jet num n-1 background}{{5.15b}{27}{Background\relax }{figure.caption.32}{}}
\newlabel{sub@fig:jet num n-1 background}{{b}{27}{Background\relax }{figure.caption.32}{}}
\@writefile{lof}{\contentsline {figure}{\numberline {5.15}{\ignorespaces $n-1$ plot for $n_j$.\relax }}{27}{figure.caption.32}\protected@file@percent }
\newlabel{fig:jet num n-1}{{5.15}{27}{$n-1$ plot for $n_j$.\relax }{figure.caption.32}{}}
\newlabel{fig:leptonic W pT n-1 signal}{{5.16a}{27}{Signal\relax }{figure.caption.33}{}}
\newlabel{sub@fig:leptonic W pT n-1 signal}{{a}{27}{Signal\relax }{figure.caption.33}{}}
\newlabel{fig:leptonic W pT n-1 background}{{5.16b}{27}{Background\relax }{figure.caption.33}{}}
\newlabel{sub@fig:leptonic W pT n-1 background}{{b}{27}{Background\relax }{figure.caption.33}{}}
\@writefile{lof}{\contentsline {figure}{\numberline {5.16}{\ignorespaces $n-1$ plot for $p_T^{W_l}$.\relax }}{27}{figure.caption.33}\protected@file@percent }
\newlabel{fig:leptonic W pT n-1}{{5.16}{27}{$n-1$ plot for $p_T^{W_l}$.\relax }{figure.caption.33}{}}
\@writefile{toc}{\contentsline {section}{\numberline {5.3}Summary of Event Selection Criteria}{28}{section.5.3}\protected@file@percent }
\@writefile{lot}{\contentsline {table}{\numberline {5.2}{\ignorespaces Summary of event selection criteria for optimal $Z'$ reconstruction and significance at each simulated mass. $\Delta M_{W_l}^{\textrm  {(min)}}$ is introduced in Sec. \ref  {sec:neutrino eta}.\relax }}{28}{table.5.2}\protected@file@percent }
\newlabel{table:cut summary}{{5.2}{28}{Summary of event selection criteria for optimal $Z'$ reconstruction and significance at each simulated mass. $\Delta M_{W_l}^{\textrm {(min)}}$ is introduced in Sec. \ref {sec:neutrino eta}.\relax }{table.5.2}{}}
\citation{ATLAS dibosons}
\@writefile{toc}{\contentsline {chapter}{\numberline {6}Systematic Uncertainty}{29}{chapter.6}\protected@file@percent }
\@writefile{lof}{\addvspace {10\p@ }}
\@writefile{lot}{\addvspace {10\p@ }}
\newlabel{chapter:systematic uncertainty}{{6}{29}{Systematic Uncertainty}{chapter.6}{}}
\@writefile{toc}{\contentsline {chapter}{\numberline {7}Results and Interpretation}{30}{chapter.7}\protected@file@percent }
\@writefile{lof}{\addvspace {10\p@ }}
\@writefile{lot}{\addvspace {10\p@ }}
\newlabel{fig:zprime postcuts}{{7.1a}{30}{Signal\relax }{figure.caption.34}{}}
\newlabel{sub@fig:zprime postcuts}{{a}{30}{Signal\relax }{figure.caption.34}{}}
\newlabel{fig:background postcuts}{{7.1b}{30}{Background\relax }{figure.caption.34}{}}
\newlabel{sub@fig:background postcuts}{{b}{30}{Background\relax }{figure.caption.34}{}}
\@writefile{lof}{\contentsline {figure}{\numberline {7.1}{\ignorespaces Reconstructed (a) $Z'$ signal and (b) background events for $m_{Z'} = 1$ TeV after background removal.\relax }}{30}{figure.caption.34}\protected@file@percent }
\newlabel{fig:signal/background postcuts}{{7.1}{30}{Reconstructed (a) $Z'$ signal and (b) background events for $m_{Z'} = 1$ TeV after background removal.\relax }{figure.caption.34}{}}
\@writefile{lof}{\contentsline {figure}{\numberline {7.2}{\ignorespaces Combined reconstructed $Z'$ signal and background events in a $740 \leq m_{WW} \leq 1260$ GeV window for $m_{Z'} = 1$ TeV after background removal.\relax }}{30}{figure.caption.35}\protected@file@percent }
\newlabel{fig:signal+background postcuts}{{7.2}{30}{Combined reconstructed $Z'$ signal and background events in a $740 \leq m_{WW} \leq 1260$ GeV window for $m_{Z'} = 1$ TeV after background removal.\relax }{figure.caption.35}{}}
\citation{ATLAS dibosons}
\citation{ATLAS dibosons}
\@writefile{lof}{\contentsline {figure}{\numberline {7.3}{\ignorespaces Signal significance calculated for $1.0 \leq m_{Z'} \leq 2.6$ TeV at $\DOTSI \intop \ilimits@ L\,dt = 139$ fb$^{-1}$.\relax }}{31}{figure.caption.36}\protected@file@percent }
\newlabel{fig:significance 139fb to 2.6 TeV}{{7.3}{31}{Signal significance calculated for $1.0 \leq m_{Z'} \leq 2.6$ TeV at $\int L\,dt = 139$ fb$^{-1}$.\relax }{figure.caption.36}{}}
\newlabel{eqn:exclusion limit}{{7.1}{31}{Results and Interpretation}{equation.7.0.1}{}}
\@writefile{lof}{\contentsline {figure}{\numberline {7.4}{\ignorespaces Cross sections of $Z'$ production and background processes at corresponding phase space cuts used in simulations as a function of $Z'$ mass.\relax }}{32}{figure.caption.37}\protected@file@percent }
\newlabel{fig:cross section with bg}{{7.4}{32}{Cross sections of $Z'$ production and background processes at corresponding phase space cuts used in simulations as a function of $Z'$ mass.\relax }{figure.caption.37}{}}
\@writefile{lof}{\contentsline {figure}{\numberline {7.5}{\ignorespaces 95\% confidence level exclusion limits calculated for a range of simulated $Z'$ masses.\relax }}{32}{figure.caption.38}\protected@file@percent }
\newlabel{fig:exclusion limit 139fb to 2.6 TeV}{{7.5}{32}{95\% confidence level exclusion limits calculated for a range of simulated $Z'$ masses.\relax }{figure.caption.38}{}}
\citation{ATLAS dibosons}
\citation{ATLAS dibosons hadronic}
\citation{ATLAS dibosons}
\citation{ATLAS dibosons}
\newlabel{fig:post cut reconstruction efficiency overall}{{7.6a}{33}{Signal\relax }{figure.caption.39}{}}
\newlabel{sub@fig:post cut reconstruction efficiency overall}{{a}{33}{Signal\relax }{figure.caption.39}{}}
\newlabel{fig:post cut reconstruction efficiency per cut}{{7.6b}{33}{Background\relax }{figure.caption.39}{}}
\newlabel{sub@fig:post cut reconstruction efficiency per cut}{{b}{33}{Background\relax }{figure.caption.39}{}}
\@writefile{lof}{\contentsline {figure}{\numberline {7.6}{\ignorespaces Pre:post-cut signal reconstruction efficiency ratio (a) for all cuts and (b) cut-by-cut; as a percentage of the highest value across every $Z'$ mass.\relax }}{33}{figure.caption.39}\protected@file@percent }
\newlabel{fig:post cut reconstruction efficiency}{{7.6}{33}{Pre:post-cut signal reconstruction efficiency ratio (a) for all cuts and (b) cut-by-cut; as a percentage of the highest value across every $Z'$ mass.\relax }{figure.caption.39}{}}
\citation{HL-LHC}
\newlabel{fig:significance 139fb estimated merged to 2.6 TeV}{{7.7a}{34}{Signal\relax }{figure.caption.40}{}}
\newlabel{sub@fig:significance 139fb estimated merged to 2.6 TeV}{{a}{34}{Signal\relax }{figure.caption.40}{}}
\newlabel{fig:exlcusion limit 139fb estimated merged to 2.6 TeV}{{7.7b}{34}{Background\relax }{figure.caption.40}{}}
\newlabel{sub@fig:exlcusion limit 139fb estimated merged to 2.6 TeV}{{b}{34}{Background\relax }{figure.caption.40}{}}
\@writefile{lof}{\contentsline {figure}{\numberline {7.7}{\ignorespaces (a) Signal significance and (b) 95\% confidence level exclusion limits calculated for $1.0 \leq m_{Z'} \leq 2.6$ TeV at $\DOTSI \intop \ilimits@ L\,dt = 139$ fb$^{-1}$ with an estimated merged jet signal contribution.\relax }}{34}{figure.caption.40}\protected@file@percent }
\newlabel{fig:139fb estimated merged to 2.6 TeV}{{7.7}{34}{(a) Signal significance and (b) 95\% confidence level exclusion limits calculated for $1.0 \leq m_{Z'} \leq 2.6$ TeV at $\int L\,dt = 139$ fb$^{-1}$ with an estimated merged jet signal contribution.\relax }{figure.caption.40}{}}
\newlabel{fig:significance 3000fb to 2.6 TeV}{{7.8a}{35}{Signal\relax }{figure.caption.41}{}}
\newlabel{sub@fig:significance 3000fb to 2.6 TeV}{{a}{35}{Signal\relax }{figure.caption.41}{}}
\newlabel{fig:exlcusion limit 3000fb to 2.6 TeV}{{7.8b}{35}{Background\relax }{figure.caption.41}{}}
\newlabel{sub@fig:exlcusion limit 3000fb to 2.6 TeV}{{b}{35}{Background\relax }{figure.caption.41}{}}
\@writefile{lof}{\contentsline {figure}{\numberline {7.8}{\ignorespaces (a) Signal significance and (b) 95\% confidence level exclusion limits calculated for $1.0 \leq m_{Z'} \leq 2.6$ TeV at $\DOTSI \intop \ilimits@ L\,dt = 3000$ fb$^{-1}$.\relax }}{35}{figure.caption.41}\protected@file@percent }
\newlabel{fig:3000fb to 2.6 TeV}{{7.8}{35}{(a) Signal significance and (b) 95\% confidence level exclusion limits calculated for $1.0 \leq m_{Z'} \leq 2.6$ TeV at $\int L\,dt = 3000$ fb$^{-1}$.\relax }{figure.caption.41}{}}
\@writefile{lof}{\contentsline {figure}{\numberline {7.9}{\ignorespaces $Z'$ 95\% CL excluded mass as a function of total integrated luminosity.\relax }}{36}{figure.caption.42}\protected@file@percent }
\newlabel{fig:luminosity vs limit to 2.6 TeV}{{7.9}{36}{$Z'$ 95\% CL excluded mass as a function of total integrated luminosity.\relax }{figure.caption.42}{}}
\citation{SSM}
\@writefile{toc}{\contentsline {chapter}{\numberline {8}Conclusion}{37}{chapter.8}\protected@file@percent }
\@writefile{lof}{\addvspace {10\p@ }}
\@writefile{lot}{\addvspace {10\p@ }}
\bibcite{ATLAS dibosons}{1}
\bibcite{PDG}{2}
\bibcite{Electroweak symmetry breaking}{3}
\bibcite{CERN and Higgs}{4}
\bibcite{Higgs}{5}
\bibcite{Dark matter}{6}
\bibcite{GUT}{7}
\bibcite{ATLAS dibosons hadronic}{8}
\bibcite{CMS dibosons}{9}
\bibcite{HVT}{10}
\bibcite{SSM}{11}
\bibcite{Radion}{12}
\bibcite{Graviton}{13}
\bibcite{ATLAS layers}{14}
\bibcite{PP Dectector Lecture}{15}
\bibcite{anti-kt}{16}
\bibcite{ATLAS detection}{17}
\bibcite{Pythia Guide}{18}
\bibcite{Pythia Physics}{19}
\bibcite{Delphes}{20}
\bibcite{Delphes Workbook}{21}
\bibcite{CRs}{22}
\bibcite{CRs 2}{23}
\bibcite{Delta R formula}{24}
\bibcite{Wong}{25}
\bibcite{HL-LHC}{26}
\gdef \@abspage@last{40}
