1000	2.534E-13	1.219E-09	7.210E-12	2.055E-10	4.992E-11
1200	1.156E-13	6.446E-10	4.170E-12	1.050E-10	3.411E-11
1400	5.777E-14	3.701E-10	2.572E-12	5.586E-11	2.417E-11
1600	3.097E-14	2.258E-10	1.653E-12	3.115E-11	1.743E-11
1800	1.742E-14	1.444E-10	1.108E-12	1.805E-11	1.275E-11
2000	1.017E-14	9.579E-11	7.601E-13	1.085E-11	9.604E-12
2200	6.141E-15	6.557E-11	5.370E-13	6.715E-12	7.276E-12
2400	3.797E-15	4.602E-11	3.848E-13	4.265E-12	5.586E-12
2600	2.380E-15	3.295E-11	2.816E-13	2.765E-12	4.330E-12
